{
	"footer": {
		"firstlevel": [{
			"title": "First Level Tab 1",
			"link": "/content/help-and-support/en/home/11",
			"desc": "First Level Footer Tab 1"
		}, {
			"title": "First Level Tab 2"
		}, {
			"title": "First Level tab 3",
			"link": "/content/help-and-support/en/home/11",
			"desc": "Description for First Level tab 3"
		}],
		"secondlevel": [{
			"title": "Second Level Tab 1"
		}, {
			"title": "Second Level Tab two"
		}]
	}
}